Verilog_Source_Code/DSD_Quiz1.sim/sim_1/behav/xsim/dump.vcd
$date
   Tue Mar 19 03:51:26 2024
$end
$version
  2020.1
$end
$timescale
  1ps
$end
$scope module simulation $end
$var reg 10 ! N [9:0] $end
$var reg 1 " reset $end
$var reg 1 # clk $end
$var wire 10 $ out [9:0] $end
$var wire 8 % amp [7:0] $end
$var wire 18 & Data_out [17:0] $end
$scope module UUT $end
$var wire 10 ' N [9:0] $end
$var wire 1 ( reset $end
$var wire 1 ) clk $end
$var wire 10 $ out [9:0] $end
$var wire 8 % amp [7:0] $end
$var wire 18 & Data_out [17:0] $end
$scope module PA $end
$var wire 10 ' N [9:0] $end
$var wire 1 ( reset $end
$var wire 1 ) clk $end
$var reg 10 * out [9:0] $end
$upscope $end
$scope module P_to_A $end
$var wire 10 $ out [9:0] $end
$var wire 1 ( reset $end
$var reg 8 + amp [7:0] $end
$upscope $end
$scope module FIR $end
$var wire 18 & Data_out [17:0] $end
$var wire 8 % Data_in [7:0] $end
$var wire 1 ) clock $end
$var wire 1 ( reset $end
$var integer 32 , k $end
$var parameter 32 - order [31:0] $end
$var parameter 32 . word_size_in [31:0] $end
$var parameter 32 / word_size_out [31:0] $end
$var parameter 8 0 b0 [7:0] $end
$var parameter 8 1 b1 [7:0] $end
$var parameter 8 2 b2 [7:0] $end
$var parameter 8 3 b3 [7:0] $end
$var parameter 8 4 b4 [7:0] $end
$var parameter 8 5 b5 [7:0] $end
$var parameter 8 6 b6 [7:0] $end
$var parameter 8 7 b7 [7:0] $end
$var parameter 8 8 b8 [7:0] $end
$var parameter 8 9 b9 [7:0] $end
$var parameter 8 : b10 [7:0] $end
$var parameter 8 ; b11 [7:0] $end
$var parameter 8 < b12 [7:0] $end
$var parameter 8 = b13 [7:0] $end
$var parameter 8 > b14 [7:0] $end
$var parameter 8 ? b15 [7:0] $end
$var parameter 8 @ b16 [7:0] $end
$var parameter 8 A b17 [7:0] $end
$var parameter 8 B b18 [7:0] $end
$var parameter 8 C b19 [7:0] $end
$var parameter 8 D b20 [7:0] $end
$var parameter 8 E b21 [7:0] $end
$var parameter 8 F b22 [7:0] $end
$var parameter 8 G b23 [7:0] $end
$var parameter 8 H b24 [7:0] $end
$var parameter 8 I b25 [7:0] $end
$var parameter 8 J b26 [7:0] $end
$var parameter 8 K b27 [7:0] $end
$var parameter 8 L b28 [7:0] $end
$var parameter 8 M b29 [7:0] $end
$var parameter 8 N b30 [7:0] $end
$var parameter 8 O b31 [7:0] $end
$upscope $end
$upscope $end
$upscope $end
$enddefinitions $end
#0
$dumpvars
b11001101 !
1"
0#
b0 $
b1100100 %
bx &
b11001101 '
1(
0)
b0 *
b1100100 +
bx ,
b100000 -
b1000 .
b10010 /
b0 0
b110 1
b10 2
b0 3
b0 4
b11 5
b111 6
b0 7
b0 8
b10 9
b1111 :
b1 ;
b0 <
b0 =
b101110 >
b1101010 ?
b1101010 @
b101110 A
b0 B
b0 C
b1 D
b1111 E
b10 F
b0 G
b0 H
b111 I
b11 J
b0 K
b0 L
b10 M
b110 N
b0 O
$end
#5000
0"
b1100111 %
bx &
0(
b1100111 +
#500000
1#
b11001101 $
b10010011 %
bx &
1)
b11001101 *
b10010011 +
b100000 ,
#1000000
0#
0)
#1500000
1#
b110011010 $
b1111100 %
bx &
1)
b110011010 *
b1111100 +
b100000 ,
#2000000
0#
0)
#2500000
1#
b1001100111 $
b111111 %
bx &
1)
b1001100111 *
b111111 +
b100000 ,
#3000000
0#
0)
#3500000
1#
b1100110100 $
b110111 %
bx &
1)
b1100110100 *
b110111 +
b100000 ,
#4000000
0#
0)
#4500000
1#
b1 $
b1100111 %
bx &
1)
b1 *
b1100111 +
b100000 ,
#5000000
0#
0)
#5500000
1#
b11001110 $
b10010011 %
bx &
1)
b11001110 *
b10010011 +
b100000 ,
#6000000
0#
0)
#6500000
1#
b110011011 $
b1111100 %
bx &
1)
b110011011 *
b1111100 +
b100000 ,
#7000000
0#
0)
#7500000
1#
b1001101000 $
b111111 %
bx &
1)
b1001101000 *
b111111 +
b100000 ,
#8000000
0#
0)
#8500000
1#
b1100110101 $
b110111 %
bx &
1)
b1100110101 *
b110111 +
b100000 ,
#9000000
0#
0)
#9500000
1#
b10 $
b1100111 %
bx &
1)
b10 *
b1100111 +
b100000 ,
#10000000
0#
0)
#10500000
1#
b11001111 $
b10010100 %
bx &
1)
b11001111 *
b10010100 +
b100000 ,
#11000000
0#
0)
#11500000
1#
b110011100 $
b1111100 %
bx &
1)
b110011100 *
b1111100 +
b100000 ,
#12000000
0#
0)
#12500000
1#
b1001101001 $
b111111 %
bx &
1)
b1001101001 *
b111111 +
b100000 ,
#13000000
0#
0)
#13500000
1#
b1100110110 $
b110111 %
bx &
1)
b1100110110 *
b110111 +
b100000 ,
#14000000
0#
0)
#14500000
1#
b11 $
b1100111 %
bx &
1)
b11 *
b1100111 +
b100000 ,
#15000000
0#
0)
#15500000
1#
b11010000 $
b10010100 %
bx &
1)
b11010000 *
b10010100 +
b100000 ,
#16000000
0#
0)
#16500000
1#
b110011101 $
b1111100 %
bx &
1)
b110011101 *
b1111100 +
b100000 ,
#17000000
0#
0)
#17500000
1#
b1001101010 $
b111111 %
bx &
1)
b1001101010 *
b111111 +
b100000 ,
#18000000
0#
0)
#18500000
1#
b1100110111 $
b110111 %
bx &
1)
b1100110111 *
b110111 +
b100000 ,
#19000000
0#
0)
#19500000
1#
b100 $
b1100111 %
bx &
1)
b100 *
b1100111 +
b100000 ,
#20000000
0#
0)
#20500000
1#
b11010001 $
b10010100 %
bx &
1)
b11010001 *
b10010100 +
b100000 ,
#21000000
0#
0)
#21500000
1#
b110011110 $
b1111100 %
bx &
1)
b110011110 *
b1111100 +
b100000 ,
#22000000
0#
0)
#22500000
1#
b1001101011 $
b111111 %
bx &
1)
b1001101011 *
b111111 +
b100000 ,
#23000000
0#
0)
#23500000
1#
b1100111000 $
b110111 %
bx &
1)
b1100111000 *
b110111 +
b100000 ,
#24000000
0#
0)
#24500000
1#
b101 $
b1100111 %
bx &
1)
b101 *
b1100111 +
b100000 ,
#25000000
0#
0)
#25500000
1#
b11010010 $
b10010100 %
bx &
1)
b11010010 *
b10010100 +
b100000 ,
#26000000
0#
0)
#26500000
1#
b110011111 $
b1111100 %
bx &
1)
b110011111 *
b1111100 +
b100000 ,
#27000000
0#
0)
#27500000
1#
b1001101100 $
b111111 %
bx &
1)
b1001101100 *
b111111 +
b100000 ,
#28000000
0#
0)
#28500000
1#
b1100111001 $
b110111 %
bx &
1)
b1100111001 *
b110111 +
b100000 ,
#29000000
0#
0)
#29500000
1#
b110 $
b1100111 %
bx &
1)
b110 *
b1100111 +
b100000 ,
#30000000
0#
0)
#30500000
1#
b11010011 $
b10010100 %
b1010101000110111 &
1)
b11010011 *
b10010100 +
b100000 ,
#31000000
0#
0)
#31500000
1#
b110100000 $
b1111100 %
b1011001100001001 &
1)
b110100000 *
b1111100 +
b100000 ,
#32000000
0#
0)
#32500000
1#
b1001101101 $
b111111 %
b1000110001110100 &
1)
b1001101101 *
b111111 +
b100000 ,
#33000000
0#
0)
#33500000
1#
b1100111010 $
b110111 %
b110101111110010 &
1)
b1100111010 *
b110111 +
b100000 ,
#34000000
0#
0)
#34500000
1#
b111 $
b1100111 %
b111111001100000 &
1)
b111 *
b1100111 +
b100000 ,
#35000000
0#
0)
#35500000
1#
b11010100 $
b10010100 %
b1010101000111110 &
1)
b11010100 *
b10010100 +
b100000 ,
#36000000
0#
0)
#36500000
1#
b110100001 $
b1111100 %
b1011001100001100 &
1)
b110100001 *
b1111100 +
b100000 ,
#37000000
0#
0)
#37500000
1#
b1001101110 $
b111111 %
b1000110001110100 &
1)
b1001101110 *
b111111 +
b100000 ,
#38000000
0#
0)
#38500000
1#
b1100111011 $
b110111 %
b110101111110010 &
1)
b1100111011 *
b110111 +
b100000 ,
#39000000
0#
0)
#39500000
1#
b1000 $
b1100111 %
b111111001100010 &
1)
b1000 *
b1100111 +
b100000 ,
#40000000
0#
0)
#40500000
1#
b11010101 $
b10010100 %
b1010101001000100 &
1)
b11010101 *
b10010100 +
b100000 ,
#41000000
0#
0)
#41500000
1#
b110100010 $
b1111001 %
b1011001100001100 &
1)
b110100010 *
b1111001 +
b100000 ,
#42000000
0#
0)
#42500000
1#
b1001101111 $
b111111 %
b1000110001100010 &
1)
b1001101111 *
b111111 +
b100000 ,
#43000000
0#
0)
#43500000
1#
b1100111100 $
b110111 %
b110101111101100 &
1)
b1100111100 *
b110111 +
b100000 ,
#44000000
0#
0)
#44500000
1#
b1001 $
b1100111 %
b111111001100010 &
1)
b1001 *
b1100111 +
b100000 ,
#45000000
0#
0)
#45500000
1#
b11010110 $
b10010100 %
b1010101001000100 &
1)
b11010110 *
b10010100 +
b100000 ,
#46000000
0#
0)
#46500000
1#
b110100011 $
b1111001 %
b1011001100000011 &
1)
b110100011 *
b1111001 +
b100000 ,
#47000000
0#
0)
#47500000
1#
b1001110000 $
b111101 %
b1000110001001101 &
1)
b1001110000 *
b111101 +
b100000 ,
#48000000
0#
0)
#48500000
1#
b1100111101 $
b111000 %
b110101111100000 &
1)
b1100111101 *
b111000 +
b100000 ,
#49000000
0#
0)
#49500000
1#
b1010 $
b1100111 %
b111111001100100 &
1)
b1010 *
b1100111 +
b100000 ,
#50000000
0#
0)
#50500000
1#
b11010111 $
b10010100 %
b1010101001000000 &
1)
b11010111 *
b10010100 +
b100000 ,
#51000000
0#
0)
#51500000
1#
b110100100 $
b1111001 %
b1011001011010110 &
1)
b110100100 *
b1111001 +
b100000 ,
#52000000
0#
0)
#52500000
1#
b1001110001 $
b111101 %
b1000110001000100 &
1)
b1001110001 *
b111101 +
b100000 ,
#53000000
0#
0)
#53500000
1#
b1100111110 $
b111000 %
b110101111010101 &
1)
b1100111110 *
b111000 +
b100000 ,
#54000000
0#
0)
#54500000
1#
b1011 $
b1101010 %
b111111001101011 &
1)
b1011 *
b1101010 +
b100000 ,
#55000000
0#
0)
#55500000
1#
b11011000 $
b10010100 %
b1010100111001000 &
1)
b11011000 *
b10010100 +
b100000 ,
#56000000
0#
0)
#56500000
1#
b110100101 $
b1111001 %
b1011000110011010 &
1)
b110100101 *
b1111001 +
b100000 ,
#57000000
0#
0)
#57500000
1#
b1001110010 $
b111101 %
b1000101011101010 &
1)
b1001110010 *
b111101 +
b100000 ,
#58000000
0#
0)
#58500000
1#
b1100111111 $
b111000 %
b110101101011000 &
1)
b1100111111 *
b111000 +
b100000 ,
#59000000
0#
0)
#59500000
1#
b1100 $
b1101010 %
b111111001110101 &
1)
b1100 *
b1101010 +
b100000 ,
#60000000
0#
0)
#60500000
1#
b11011001 $
b10010101 %
b1010100111011101 &
1)
b11011001 *
b10010101 +
b100000 ,
#61000000
0#
0)
#61500000
1#
b110100110 $
b1111001 %
b1011000101000001 &
1)
b110100110 *
b1111001 +
b100000 ,
#62000000
0#
0)
#62500000
1#
b1001110011 $
b111101 %
b1000101000011001 &
1)
b1001110011 *
b111101 +
b100000 ,
#63000000
0#
0)
#63500000
1#
b1101000000 $
b111000 %
b110101011101110 &
1)
b1101000000 *
b111000 +
b100000 ,
#64000000
0#
0)
#64500000
1#
b1101 $
b1101010 %
b111111010110000 &
1)
b1101 *
b1101010 +
b100000 ,
#65000000
0#
0)
#65500000
1#
b11011010 $
b10010101 %
b1010101000010001 &
1)
b11011010 *
b10010101 +
b100000 ,
#66000000
0#
0)
#66500000
1#
b110100111 $
b1111001 %
b1011000100110011 &
1)
b110100111 *
b1111001 +
b100000 ,
#67000000
0#
0)
#67500000
1#
b1001110100 $
b111101 %
b1000101000001110 &
1)
b1001110100 *
b111101 +
b100000 ,
#68000000
0#
0)
#68500000
1#
b1101000001 $
b111000 %
b110101101011011 &
1)
b1101000001 *
b111000 +
b100000 ,
#69000000
0#
0)
#69500000
1#
b1110 $
b1101010 %
b111111111111011 &
1)
b1110 *
b1101010 +
b100000 ,
#70000000
0#
0)
#70500000
1#
b11011011 $
b10010101 %
b1010101101011010 &
1)
b11011011 *
b10010101 +
b100000 ,
#71000000
0#
0)
#71500000
1#
b110101000 $
b1111001 %
b1011000110101100 &
1)
b110101000 *
b1111001 +
b100000 ,
#72000000
0#
0)
#72500000
1#
b1001110101 $
b111101 %
b1000101000000000 &
1)
b1001110101 *
b111101 +
b100000 ,
#73000000
0#
0)
#73500000
1#
b1101000010 $
b111000 %
b110101101011100 &
1)
b1101000010 *
b111000 +
b100000 ,
#74000000
0#
0)
#74500000
1#
b1111 $
b1101010 %
b1000000000101111 &
1)
b1111 *
b1101010 +
b100000 ,
#75000000
0#
0)
#75500000
1#
b11011100 $
b10010101 %
b1010101111110001 &
1)
b11011100 *
b10010101 +
b100000 ,
#76000000
0#
0)
#76500000
1#
b110101001 $
b1111001 %
b1011001000011000 &
1)
b110101001 *
b1111001 +
b100000 ,
#77000000
0#
0)
#77500000
1#
b1001110110 $
b111101 %
b1000101000100100 &
1)
b1001110110 *
b111101 +
b100000 ,
#78000000
0#
0)
#78500000
1#
b1101000011 $
b111000 %
b110101101100010 &
1)
b1101000011 *
b111000 +
b100000 ,
#79000000
0#
0)
#79500000
1#
b10000 $
b1101010 %
b1000000001000100 &
1)
b10000 *
b1101010 +
b100000 ,
#80000000
0#
0)
#80500000
1#
b11011101 $
b10010101 %
b1010101111111011 &
1)
b11011101 *
b10010101 +
b100000 ,
#81000000
0#
0)
#81500000
1#
b110101010 $
b1111001 %
b1011001000100111 &
1)
b110101010 *
b1111001 +
b100000 ,
#82000000
0#
0)
#82500000
1#
b1001110111 $
b111101 %
b1000101000100110 &
1)
b1001110111 *
b111101 +
b100000 ,
#83000000
0#
0)
#83500000
1#
b1101000100 $
b111000 %
b110101101101000 &
1)
b1101000100 *
b111000 +
b100000 ,
#84000000
0#
0)
#84500000
1#
b10001 $
b1101010 %
b1000000001010110 &
1)
b10001 *
b1101010 +
b100000 ,
#85000000
0#
0)
#85500000
1#
b11011110 $
b10010101 %
b1010110000000010 &
1)
b11011110 *
b10010101 +
b100000 ,
#86000000
0#
0)
#86500000
1#
b110101011 $
b1111001 %
b1011001000101010 &
1)
b110101011 *
b1111001 +
b100000 ,
#87000000
0#
0)
#87500000
1#
b1001111000 $
b111101 %
b1000101000100110 &
1)
b1001111000 *
b111101 +
b100000 ,
#88000000
0#
0)
#88500000
1#
b1101000101 $
b111000 %
b110101101101000 &
1)
b1101000101 *
b111000 +
b100000 ,
#89000000
0#
0)
#89500000
1#
b10010 $
b1101010 %
b1000000001011000 &
1)
b10010 *
b1101010 +
b100000 ,
#90000000
0#
0)
#90500000
1#
b11011111 $
b10010101 %
b1010110000001000 &
1)
b11011111 *
b10010101 +
b100000 ,
#91000000
0#
0)
#91500000
1#
b110101100 $
b1110110 %
b1011001000101010 &
1)
b110101100 *
b1110110 +
b100000 ,
#92000000
0#
0)
#92500000
1#
b1001111001 $
b111101 %
b1000101000010100 &
1)
b1001111001 *
b111101 +
b100000 ,
#93000000
0#
0)
#93500000
1#
b1101000110 $
b111000 %
b110101101100010 &
1)
b1101000110 *
b111000 +
b100000 ,
#94000000
0#
0)
#94500000
1#
b10011 $
b1101010 %
b1000000001011000 &
1)
b10011 *
b1101010 +
b100000 ,
#95000000
0#
0)
#95500000
1#
b11100000 $
b10010101 %
b1010110000001000 &
1)
b11100000 *
b10010101 +
b100000 ,
#96000000
0#
0)
#96500000
1#
b110101101 $
b1110110 %
b1011001000100001 &
1)
b110101101 *
b1110110 +
b100000 ,
#97000000
0#
0)
#97500000
1#
b1001111010 $
b111011 %
b1000100111111111 &
1)
b1001111010 *
b111011 +
b100000 ,
#98000000
0#
0)
#98500000
1#
b1101000111 $
b111010 %
b110101101010110 &
1)
b1101000111 *
b111010 +
b100000 ,
#99000000
0#
0)
#99500000
1#
b10100 $
b1101010 %
b1000000001100000 &
1)
b10100 *
b1101010 +
b100000 ,
#100000000
0#
0)
#100500000
1#
b11100001 $
b10010101 %
b1010110000000110 &
1)
b11100001 *
b10010101 +
b100000 ,
