Verilog_Source_Code/DSD_Quiz1.sim/sim_1/behav/xsim/simulate.log
Vivado Simulator 2020.1
Time resolution is 1 ps
Time =               500000, Counter = 0, amp = 103, Data_out =      x
Time =              1500000, Counter = 205, amp = 147, Data_out =      x
Time =              2500000, Counter = 410, amp = 124, Data_out =      x
Time =              3500000, Counter = 615, amp = 63, Data_out =      x
Time =              4500000, Counter = 820, amp = 55, Data_out =      x
Time =              5500000, Counter = 1, amp = 103, Data_out =      x
Time =              6500000, Counter = 206, amp = 147, Data_out =      x
Time =              7500000, Counter = 411, amp = 124, Data_out =      x
Time =              8500000, Counter = 616, amp = 63, Data_out =      x
Time =              9500000, Counter = 821, amp = 55, Data_out =      x
Time =             10500000, Counter = 2, amp = 103, Data_out =      x
Time =             11500000, Counter = 207, amp = 148, Data_out =      x
Time =             12500000, Counter = 412, amp = 124, Data_out =      x
Time =             13500000, Counter = 617, amp = 63, Data_out =      x
Time =             14500000, Counter = 822, amp = 55, Data_out =      x
Time =             15500000, Counter = 3, amp = 103, Data_out =      x
Time =             16500000, Counter = 208, amp = 148, Data_out =      x
Time =             17500000, Counter = 413, amp = 124, Data_out =      x
Time =             18500000, Counter = 618, amp = 63, Data_out =      x
Time =             19500000, Counter = 823, amp = 55, Data_out =      x
Time =             20500000, Counter = 4, amp = 103, Data_out =      x
Time =             21500000, Counter = 209, amp = 148, Data_out =      x
Time =             22500000, Counter = 414, amp = 124, Data_out =      x
Time =             23500000, Counter = 619, amp = 63, Data_out =      x
Time =             24500000, Counter = 824, amp = 55, Data_out =      x
Time =             25500000, Counter = 5, amp = 103, Data_out =      x
Time =             26500000, Counter = 210, amp = 148, Data_out =      x
Time =             27500000, Counter = 415, amp = 124, Data_out =      x
Time =             28500000, Counter = 620, amp = 63, Data_out =      x
Time =             29500000, Counter = 825, amp = 55, Data_out =      x
Time =             30500000, Counter = 6, amp = 103, Data_out =      x
Time =             31500000, Counter = 211, amp = 148, Data_out =  33571
Time =             32500000, Counter = 416, amp = 124, Data_out =  33876
Time =             33500000, Counter = 621, amp = 63, Data_out =  32584
Time =             34500000, Counter = 826, amp = 55, Data_out =  31508
Time =             35500000, Counter = 7, amp = 103, Data_out =  32124
Time =             36500000, Counter = 212, amp = 148, Data_out =  33577
Time =             37500000, Counter = 417, amp = 124, Data_out =  33880
Time =             38500000, Counter = 622, amp = 63, Data_out =  32585
Time =             39500000, Counter = 827, amp = 55, Data_out =  31508
Time =             40500000, Counter = 8, amp = 103, Data_out =  32124
Time =             41500000, Counter = 213, amp = 148, Data_out =  33577
Time =             42500000, Counter = 418, amp = 121, Data_out =  33876
Time =             43500000, Counter = 623, amp = 63, Data_out =  32585
Time =             44500000, Counter = 828, amp = 55, Data_out =  31508
Time =             45500000, Counter = 9, amp = 103, Data_out =  32124
Time =             46500000, Counter = 214, amp = 148, Data_out =  33574
Time =             47500000, Counter = 419, amp = 121, Data_out =  33864
Time =             48500000, Counter = 624, amp = 61, Data_out =  32563
Time =             49500000, Counter = 829, amp = 56, Data_out =  31501
Time =             50500000, Counter = 10, amp = 103, Data_out =  32124
Time =             51500000, Counter = 215, amp = 148, Data_out =  33574
Time =             52500000, Counter = 420, amp = 121, Data_out =  33862
Time =             53500000, Counter = 625, amp = 61, Data_out =  32556
Time =             54500000, Counter = 830, amp = 56, Data_out =  31469
Time =             55500000, Counter = 11, amp = 106, Data_out =  32043
Time =             56500000, Counter = 216, amp = 148, Data_out =  33427
Time =             57500000, Counter = 421, amp = 121, Data_out =  33673
Time =             58500000, Counter = 626, amp = 61, Data_out =  32367
Time =             59500000, Counter = 831, amp = 56, Data_out =  31322
Time =             60500000, Counter = 12, amp = 106, Data_out =  31952
Time =             61500000, Counter = 217, amp = 149, Data_out =  33373
Time =             62500000, Counter = 422, amp = 121, Data_out =  33611
Time =             63500000, Counter = 627, amp = 61, Data_out =  32291
Time =             64500000, Counter = 832, amp = 56, Data_out =  31259
Time =             65500000, Counter = 13, amp = 106, Data_out =  31916
Time =             66500000, Counter = 218, amp = 149, Data_out =  33360
Time =             67500000, Counter = 423, amp = 121, Data_out =  33636
Time =             68500000, Counter = 628, amp = 61, Data_out =  32377
Time =             69500000, Counter = 833, amp = 56, Data_out =  31406
Time =             70500000, Counter = 14, amp = 106, Data_out =  32105
Time =             71500000, Counter = 219, amp = 149, Data_out =  33549
Time =             72500000, Counter = 424, amp = 121, Data_out =  33780
Time =             73500000, Counter = 629, amp = 61, Data_out =  32457
Time =             74500000, Counter = 834, amp = 56, Data_out =  31457
Time =             75500000, Counter = 15, amp = 106, Data_out =  32157
Time =             76500000, Counter = 220, amp = 149, Data_out =  33613
Time =             77500000, Counter = 425, amp = 121, Data_out =  33843
Time =             78500000, Counter = 630, amp = 61, Data_out =  32507
Time =             79500000, Counter = 835, amp = 56, Data_out =  31491
Time =             80500000, Counter = 16, amp = 106, Data_out =  32185
Time =             81500000, Counter = 221, amp = 149, Data_out =  33625
Time =             82500000, Counter = 426, amp = 121, Data_out =  33846
Time =             83500000, Counter = 631, amp = 61, Data_out =  32507
Time =             84500000, Counter = 836, amp = 56, Data_out =  31491
Time =             85500000, Counter = 17, amp = 106, Data_out =  32188
Time =             86500000, Counter = 222, amp = 149, Data_out =  33637
Time =             87500000, Counter = 427, amp = 121, Data_out =  33850
Time =             88500000, Counter = 632, amp = 61, Data_out =  32508
Time =             89500000, Counter = 837, amp = 56, Data_out =  31491
Time =             90500000, Counter = 18, amp = 106, Data_out =  32188
Time =             91500000, Counter = 223, amp = 149, Data_out =  33637
Time =             92500000, Counter = 428, amp = 118, Data_out =  33846
Time =             93500000, Counter = 633, amp = 61, Data_out =  32508
Time =             94500000, Counter = 838, amp = 56, Data_out =  31491
Time =             95500000, Counter = 19, amp = 106, Data_out =  32188
Time =             96500000, Counter = 224, amp = 149, Data_out =  33634
Time =             97500000, Counter = 429, amp = 118, Data_out =  33834
Time =             98500000, Counter = 634, amp = 59, Data_out =  32486
Time =             99500000, Counter = 839, amp = 58, Data_out =  31486
Time =            100500000, Counter = 20, amp = 106, Data_out =  32188
Time =            101500000, Counter = 225, amp = 149, Data_out =  33634
Time =            102500000, Counter = 430, amp = 118, Data_out =  33832
Time =            103500000, Counter = 635, amp = 59, Data_out =  32480
Time =            104500000, Counter = 840, amp = 58, Data_out =  31458
Time =            105500000, Counter = 21, amp = 109, Data_out =  32113
Time =            106500000, Counter = 226, amp = 149, Data_out =  33490
Time =            107500000, Counter = 431, amp = 118, Data_out =  33643
Time =            108500000, Counter = 636, amp = 59, Data_out =  32291
Time =            109500000, Counter = 841, amp = 58, Data_out =  31311
Time =            110500000, Counter = 22, amp = 109, Data_out =  32022
Time =            111500000, Counter = 227, amp = 149, Data_out =  33442
Time =            112500000, Counter = 432, amp = 118, Data_out =  33610
Time =            113500000, Counter = 637, amp = 59, Data_out =  32265
Time =            114500000, Counter = 842, amp = 58, Data_out =  31311
Time =            115500000, Counter = 23, amp = 109, Data_out =  32048
Time =            116500000, Counter = 228, amp = 149, Data_out =  33475
Time =            117500000, Counter = 433, amp = 118, Data_out =  33658
Time =            118500000, Counter = 638, amp = 59, Data_out =  32356
Time =            119500000, Counter = 843, amp = 58, Data_out =  31458
Time =            120500000, Counter = 24, amp = 109, Data_out =  32237
Time =            121500000, Counter = 229, amp = 149, Data_out =  33664
Time =            122500000, Counter = 434, amp = 118, Data_out =  33802
Time =            123500000, Counter = 639, amp = 59, Data_out =  32431
Time =            124500000, Counter = 844, amp = 58, Data_out =  31486
Time =            125500000, Counter = 25, amp = 109, Data_out =  32243
Time =            126500000, Counter = 230, amp = 149, Data_out =  33666
Time =            127500000, Counter = 435, amp = 118, Data_out =  33802
Time =            128500000, Counter = 640, amp = 59, Data_out =  32431
Time =            129500000, Counter = 845, amp = 58, Data_out =  31491
Time =            130500000, Counter = 26, amp = 109, Data_out =  32265
Time =            131500000, Counter = 231, amp = 149, Data_out =  33678
Time =            132500000, Counter = 436, amp = 118, Data_out =  33805
Time =            133500000, Counter = 641, amp = 59, Data_out =  32431
Time =            134500000, Counter = 846, amp = 58, Data_out =  31491
Time =            135500000, Counter = 27, amp = 109, Data_out =  32265
Time =            136500000, Counter = 232, amp = 149, Data_out =  33684
Time =            137500000, Counter = 437, amp = 118, Data_out =  33805
Time =            138500000, Counter = 642, amp = 59, Data_out =  32431
Time =            139500000, Counter = 847, amp = 58, Data_out =  31491
Time =            140500000, Counter = 28, amp = 109, Data_out =  32265
Time =            141500000, Counter = 233, amp = 149, Data_out =  33684
Time =            142500000, Counter = 438, amp = 118, Data_out =  33805
Time =            143500000, Counter = 643, amp = 59, Data_out =  32431
Time =            144500000, Counter = 848, amp = 58, Data_out =  31491
Time =            145500000, Counter = 29, amp = 109, Data_out =  32265
Time =            146500000, Counter = 234, amp = 149, Data_out =  33684
Time =            147500000, Counter = 439, amp = 115, Data_out =  33799
Time =            148500000, Counter = 644, amp = 58, Data_out =  32429
Time =            149500000, Counter = 849, amp = 59, Data_out =  31493
Time =            150500000, Counter = 30, amp = 109, Data_out =  32265
Time =            151500000, Counter = 235, amp = 149, Data_out =  33681
Time =            152500000, Counter = 440, amp = 115, Data_out =  33786
Time =            153500000, Counter = 645, amp = 58, Data_out =  32408
Time =            154500000, Counter = 850, amp = 59, Data_out =  31482
Time =            155500000, Counter = 31, amp = 112, Data_out =  32274
Time =            156500000, Counter = 236, amp = 149, Data_out =  33684
Time =            157500000, Counter = 441, amp = 115, Data_out =  33786
Time =            158500000, Counter = 646, amp = 58, Data_out =  32408
Time =            159500000, Counter = 851, amp = 59, Data_out =  31461
Time =            160500000, Counter = 32, amp = 112, Data_out =  32191
Time =            161500000, Counter = 237, amp = 150, Data_out =  33533
Time =            162500000, Counter = 442, amp = 115, Data_out =  33585
Time =            163500000, Counter = 647, amp = 58, Data_out =  32206
Time =            164500000, Counter = 852, amp = 59, Data_out =  31311
Time =            165500000, Counter = 33, amp = 112, Data_out =  32118
Time =            166500000, Counter = 238, amp = 150, Data_out =  33534
Time =            167500000, Counter = 443, amp = 115, Data_out =  33636
Time =            168500000, Counter = 648, amp = 58, Data_out =  32304
Time =            169500000, Counter = 853, amp = 59, Data_out =  31461
Time =            170500000, Counter = 34, amp = 112, Data_out =  32307
Time =            171500000, Counter = 239, amp = 150, Data_out =  33714
Time =            172500000, Counter = 444, amp = 115, Data_out =  33765
Time =            173500000, Counter = 649, amp = 58, Data_out =  32384
Time =            174500000, Counter = 854, amp = 59, Data_out =  31513
Time =            175500000, Counter = 35, amp = 112, Data_out =  32360
Time =            176500000, Counter = 240, amp = 150, Data_out =  33778
Time =            177500000, Counter = 445, amp = 115, Data_out =  33828
Time =            178500000, Counter = 650, amp = 58, Data_out =  32428
Time =            179500000, Counter = 855, amp = 59, Data_out =  31549
Time =            180500000, Counter = 36, amp = 112, Data_out =  32388
Time =            181500000, Counter = 241, amp = 150, Data_out =  33790
Time =            182500000, Counter = 446, amp = 115, Data_out =  33831
Time =            183500000, Counter = 651, amp = 58, Data_out =  32428
Time =            184500000, Counter = 856, amp = 59, Data_out =  31549
Time =            185500000, Counter = 37, amp = 112, Data_out =  32391
Time =            186500000, Counter = 242, amp = 150, Data_out =  33802
Time =            187500000, Counter = 447, amp = 115, Data_out =  33835
Time =            188500000, Counter = 652, amp = 58, Data_out =  32429
Time =            189500000, Counter = 857, amp = 59, Data_out =  31549
Time =            190500000, Counter = 38, amp = 112, Data_out =  32391
Time =            191500000, Counter = 243, amp = 150, Data_out =  33802
Time =            192500000, Counter = 448, amp = 115, Data_out =  33837
Time =            193500000, Counter = 653, amp = 58, Data_out =  32429
Time =            194500000, Counter = 858, amp = 59, Data_out =  31549
Time =            195500000, Counter = 39, amp = 112, Data_out =  32391
Time =            196500000, Counter = 244, amp = 150, Data_out =  33802
Time =            197500000, Counter = 449, amp = 112, Data_out =  33831
Time =            198500000, Counter = 654, amp = 58, Data_out =  32429
Time =            199500000, Counter = 859, amp = 61, Data_out =  31553
Time =            200500000, Counter = 40, amp = 112, Data_out =  32391
Time =            201500000, Counter = 245, amp = 150, Data_out =  33799
Time =            202500000, Counter = 450, amp = 112, Data_out =  33819
Time =            203500000, Counter = 655, amp = 58, Data_out =  32413
Time =            204500000, Counter = 860, amp = 61, Data_out =  31552
Time =            205500000, Counter = 41, amp = 115, Data_out =  32409
Time =            206500000, Counter = 246, amp = 150, Data_out =  33805
Time =            207500000, Counter = 451, amp = 112, Data_out =  33819
Time =            208500000, Counter = 656, amp = 58, Data_out =  32413
Time =            209500000, Counter = 861, amp = 61, Data_out =  31531
Time =            210500000, Counter = 42, amp = 115, Data_out =  32334
Time =            211500000, Counter = 247, amp = 150, Data_out =  33689
Time =            212500000, Counter = 452, amp = 112, Data_out =  33697
Time =            213500000, Counter = 657, amp = 58, Data_out =  32324
Time =            214500000, Counter = 862, amp = 61, Data_out =  31507
Time =            215500000, Counter = 43, amp = 115, Data_out =  32373
Time =            216500000, Counter = 248, amp = 150, Data_out =  33765
Time =            217500000, Counter = 453, amp = 112, Data_out =  33779
Time =            218500000, Counter = 658, amp = 58, Data_out =  32427
Time =            219500000, Counter = 863, amp = 61, Data_out =  31657
Time =            220500000, Counter = 44, amp = 115, Data_out =  32562
Time =            221500000, Counter = 249, amp = 150, Data_out =  33945
Time =            222500000, Counter = 454, amp = 112, Data_out =  33911
Time =            223500000, Counter = 659, amp = 58, Data_out =  32508
Time =            224500000, Counter = 864, amp = 61, Data_out =  31690
Time =            225500000, Counter = 45, amp = 115, Data_out =  32570
Time =            226500000, Counter = 250, amp = 150, Data_out =  33947
Time =            227500000, Counter = 455, amp = 112, Data_out =  33911
Time =            228500000, Counter = 660, amp = 58, Data_out =  32502
Time =            229500000, Counter = 865, amp = 61, Data_out =  31699
Time =            230500000, Counter = 46, amp = 115, Data_out =  32592
Time =            231500000, Counter = 251, amp = 150, Data_out =  33959
Time =            232500000, Counter = 456, amp = 112, Data_out =  33914
Time =            233500000, Counter = 661, amp = 58, Data_out =  32502
Time =            234500000, Counter = 866, amp = 61, Data_out =  31699
Time =            235500000, Counter = 47, amp = 115, Data_out =  32592
Time =            236500000, Counter = 252, amp = 150, Data_out =  33965
Time =            237500000, Counter = 457, amp = 112, Data_out =  33914
Time =            238500000, Counter = 662, amp = 58, Data_out =  32502
Time =            239500000, Counter = 867, amp = 61, Data_out =  31699
Time =            240500000, Counter = 48, amp = 115, Data_out =  32592
Time =            241500000, Counter = 253, amp = 150, Data_out =  33965
Time =            242500000, Counter = 458, amp = 112, Data_out =  33914
Time =            243500000, Counter = 663, amp = 58, Data_out =  32502
Time =            244500000, Counter = 868, amp = 61, Data_out =  31699
Time =            245500000, Counter = 49, amp = 115, Data_out =  32592
Time =            246500000, Counter = 254, amp = 150, Data_out =  33965
Time =            247500000, Counter = 459, amp = 112, Data_out =  33914
Time =            248500000, Counter = 664, amp = 58, Data_out =  32502
Time =            249500000, Counter = 869, amp = 61, Data_out =  31699
Time =            250500000, Counter = 50, amp = 115, Data_out =  32592
Time =            251500000, Counter = 255, amp = 150, Data_out =  33965
Time =            252500000, Counter = 460, amp = 109, Data_out =  33908
Time =            253500000, Counter = 665, amp = 56, Data_out =  32498
Time =            254500000, Counter = 870, amp = 63, Data_out =  31703
Time =            255500000, Counter = 51, amp = 115, Data_out =  32592
Time =            256500000, Counter = 256, amp = 150, Data_out =  33962
Time =            257500000, Counter = 461, amp = 109, Data_out =  33894
Time =            258500000, Counter = 666, amp = 56, Data_out =  32474
Time =            259500000, Counter = 871, amp = 63, Data_out =  31690
Time =            260500000, Counter = 52, amp = 118, Data_out =  32604
Time =            261500000, Counter = 257, amp = 150, Data_out =  33968
Time =            262500000, Counter = 462, amp = 109, Data_out =  33894
Time =            263500000, Counter = 667, amp = 56, Data_out =  32474
Time =            264500000, Counter = 872, amp = 63, Data_out =  31669
Time =            265500000, Counter = 53, amp = 118, Data_out =  32513
Time =            266500000, Counter = 258, amp = 150, Data_out =  33794
Time =            267500000, Counter = 463, amp = 109, Data_out =  33672
Time =            268500000, Counter = 668, amp = 56, Data_out =  32259
Time =            269500000, Counter = 873, amp = 63, Data_out =  31519
Time =            270500000, Counter = 54, amp = 118, Data_out =  32452
Time =            271500000, Counter = 259, amp = 150, Data_out =  33812
Time =            272500000, Counter = 464, amp = 109, Data_out =  33738
Time =            273500000, Counter = 669, amp = 56, Data_out =  32362
Time =            274500000, Counter = 874, amp = 63, Data_out =  31669
Time =            275500000, Counter = 55, amp = 118, Data_out =  32641
Time =            276500000, Counter = 260, amp = 150, Data_out =  33992
Time =            277500000, Counter = 465, amp = 109, Data_out =  33864
Time =            278500000, Counter = 670, amp = 56, Data_out =  32431
Time =            279500000, Counter = 875, amp = 63, Data_out =  31694
Time =            280500000, Counter = 56, amp = 118, Data_out =  32647
Time =            281500000, Counter = 261, amp = 150, Data_out =  33994
Time =            282500000, Counter = 466, amp = 109, Data_out =  33864
Time =            283500000, Counter = 671, amp = 56, Data_out =  32425
Time =            284500000, Counter = 876, amp = 63, Data_out =  31699
Time =            285500000, Counter = 57, amp = 118, Data_out =  32669
Time =            286500000, Counter = 262, amp = 150, Data_out =  34006
Time =            287500000, Counter = 467, amp = 109, Data_out =  33867
Time =            288500000, Counter = 672, amp = 56, Data_out =  32425
Time =            289500000, Counter = 877, amp = 63, Data_out =  31699
Time =            290500000, Counter = 58, amp = 118, Data_out =  32669
Time =            291500000, Counter = 263, amp = 150, Data_out =  34012
Time =            292500000, Counter = 468, amp = 109, Data_out =  33867
Time =            293500000, Counter = 673, amp = 56, Data_out =  32425
Time =            294500000, Counter = 878, amp = 63, Data_out =  31699
Time =            295500000, Counter = 59, amp = 118, Data_out =  32669
Time =            296500000, Counter = 264, amp = 150, Data_out =  34012
Time =            297500000, Counter = 469, amp = 109, Data_out =  33867
Time =            298500000, Counter = 674, amp = 56, Data_out =  32425
Time =            299500000, Counter = 879, amp = 63, Data_out =  31699
Time =            300500000, Counter = 60, amp = 118, Data_out =  32669
Time =            301500000, Counter = 265, amp = 150, Data_out =  34012
Time =            302500000, Counter = 470, amp = 106, Data_out =  33861
Time =            303500000, Counter = 675, amp = 55, Data_out =  32423
Time =            304500000, Counter = 880, amp = 66, Data_out =  31705
Time =            305500000, Counter = 61, amp = 118, Data_out =  32669
Time =            306500000, Counter = 266, amp = 150, Data_out =  34009
Time =            307500000, Counter = 471, amp = 106, Data_out =  33848
Time =            308500000, Counter = 676, amp = 55, Data_out =  32404
Time =            309500000, Counter = 881, amp = 66, Data_out =  31702
Time =            310500000, Counter = 62, amp = 118, Data_out =  32684
Time =            311500000, Counter = 267, amp = 150, Data_out =  34018
Time =            312500000, Counter = 472, amp = 106, Data_out =  33848
Time =            313500000, Counter = 677, amp = 55, Data_out =  32404
Time =            314500000, Counter = 882, amp = 66, Data_out =  31678
Time =            315500000, Counter = 63, amp = 121, Data_out =  32595
Time =            316500000, Counter = 268, amp = 149, Data_out =  33861
Time =            317500000, Counter = 473, amp = 106, Data_out =  33696
Time =            318500000, Counter = 678, amp = 55, Data_out =  32302
Time =            319500000, Counter = 883, amp = 66, Data_out =  31657
Time =            320500000, Counter = 64, amp = 121, Data_out =  32658
Time =            321500000, Counter = 269, amp = 149, Data_out =  33972
Time =            322500000, Counter = 474, amp = 106, Data_out =  33778
Time =            323500000, Counter = 679, amp = 55, Data_out =  32323
Time =            324500000, Counter = 884, amp = 66, Data_out =  31657
Time =            325500000, Counter = 65, amp = 121, Data_out =  32658
Time =            326500000, Counter = 270, amp = 149, Data_out =  33963
Time =            327500000, Counter = 475, amp = 106, Data_out =  33781
Time =            328500000, Counter = 680, amp = 55, Data_out =  32393
Time =            329500000, Counter = 885, amp = 66, Data_out =  31789
Time =            330500000, Counter = 66, amp = 121, Data_out =  32808
Time =            331500000, Counter = 271, amp = 149, Data_out =  34092
Time =            332500000, Counter = 476, amp = 106, Data_out =  33868
Time =            333500000, Counter = 681, amp = 55, Data_out =  32424
Time =            334500000, Counter = 886, amp = 66, Data_out =  31782
Time =            335500000, Counter = 67, amp = 121, Data_out =  32806
Time =            336500000, Counter = 272, amp = 149, Data_out =  34092
Time =            337500000, Counter = 477, amp = 106, Data_out =  33868
Time =            338500000, Counter = 682, amp = 55, Data_out =  32424
Time =            339500000, Counter = 887, amp = 66, Data_out =  31791
Time =            340500000, Counter = 68, amp = 121, Data_out =  32821
Time =            341500000, Counter = 273, amp = 149, Data_out =  34098
Time =            342500000, Counter = 478, amp = 106, Data_out =  33867
Time =            343500000, Counter = 683, amp = 55, Data_out =  32423
Time =            344500000, Counter = 888, amp = 66, Data_out =  31791
Time =            345500000, Counter = 69, amp = 121, Data_out =  32821
Time =            346500000, Counter = 274, amp = 149, Data_out =  34104
Time =            347500000, Counter = 479, amp = 106, Data_out =  33865
Time =            348500000, Counter = 684, amp = 55, Data_out =  32423
Time =            349500000, Counter = 889, amp = 66, Data_out =  31791
Time =            350500000, Counter = 70, amp = 121, Data_out =  32821
Time =            351500000, Counter = 275, amp = 149, Data_out =  34104
Time =            352500000, Counter = 480, amp = 103, Data_out =  33859
Time =            353500000, Counter = 685, amp = 53, Data_out =  32419
Time =            354500000, Counter = 890, amp = 68, Data_out =  31795
Time =            355500000, Counter = 71, amp = 121, Data_out =  32821
Time =            356500000, Counter = 276, amp = 149, Data_out =  34101
Time =            357500000, Counter = 481, amp = 103, Data_out =  33845
Time =            358500000, Counter = 686, amp = 53, Data_out =  32395
Time =            359500000, Counter = 891, amp = 68, Data_out =  31782
Time =            360500000, Counter = 72, amp = 121, Data_out =  32827
Time =            361500000, Counter = 277, amp = 149, Data_out =  34107
Time =            362500000, Counter = 482, amp = 103, Data_out =  33845
Time =            363500000, Counter = 687, amp = 53, Data_out =  32395
Time =            364500000, Counter = 892, amp = 68, Data_out =  31758
Time =            365500000, Counter = 73, amp = 124, Data_out =  32730
Time =            366500000, Counter = 278, amp = 149, Data_out =  33915
Time =            367500000, Counter = 483, amp = 103, Data_out =  33614
Time =            368500000, Counter = 688, amp = 53, Data_out =  32180
Time =            369500000, Counter = 893, amp = 68, Data_out =  31611
Time =            370500000, Counter = 74, amp = 124, Data_out =  32681
Time =            371500000, Counter = 279, amp = 149, Data_out =  33951
Time =            372500000, Counter = 484, amp = 103, Data_out =  33665
Time =            373500000, Counter = 689, amp = 53, Data_out =  32196
Time =            374500000, Counter = 894, amp = 68, Data_out =  31611
Time =            375500000, Counter = 75, amp = 124, Data_out =  32681
Time =            376500000, Counter = 280, amp = 149, Data_out =  33942
Time =            377500000, Counter = 485, amp = 103, Data_out =  33665
Time =            378500000, Counter = 690, amp = 53, Data_out =  32265
Time =            379500000, Counter = 895, amp = 68, Data_out =  31762
Time =            380500000, Counter = 76, amp = 124, Data_out =  32876
Time =            381500000, Counter = 281, amp = 149, Data_out =  34133
Time =            382500000, Counter = 486, amp = 103, Data_out =  33815
Time =            383500000, Counter = 691, amp = 53, Data_out =  32346
Time =            384500000, Counter = 896, amp = 68, Data_out =  31782
Time =            385500000, Counter = 77, amp = 124, Data_out =  32880
Time =            386500000, Counter = 282, amp = 149, Data_out =  34133
Time =            387500000, Counter = 487, amp = 103, Data_out =  33815
Time =            388500000, Counter = 692, amp = 53, Data_out =  32346
Time =            389500000, Counter = 897, amp = 68, Data_out =  31791
Time =            390500000, Counter = 78, amp = 124, Data_out =  32898
Time =            391500000, Counter = 283, amp = 149, Data_out =  34145
Time =            392500000, Counter = 488, amp = 103, Data_out =  33818
Time =            393500000, Counter = 693, amp = 53, Data_out =  32346
Time =            394500000, Counter = 898, amp = 68, Data_out =  31791
Time =            395500000, Counter = 79, amp = 124, Data_out =  32898
Time =            396500000, Counter = 284, amp = 149, Data_out =  34151
Time =            397500000, Counter = 489, amp = 103, Data_out =  33818
Time =            398500000, Counter = 694, amp = 53, Data_out =  32346
Time =            399500000, Counter = 899, amp = 68, Data_out =  31791
Time =            400500000, Counter = 80, amp = 124, Data_out =  32898
Time =            401500000, Counter = 285, amp = 149, Data_out =  34151
Time =            402500000, Counter = 490, amp = 100, Data_out =  33812
Time =            403500000, Counter = 695, amp = 52, Data_out =  32344
Time =            404500000, Counter = 900, amp = 70, Data_out =  31795
Time =            405500000, Counter = 81, amp = 124, Data_out =  32898
Time =            406500000, Counter = 286, amp = 149, Data_out =  34148
Time =            407500000, Counter = 491, amp = 100, Data_out =  33799
Time =            408500000, Counter = 696, amp = 52, Data_out =  32324
Time =            409500000, Counter = 901, amp = 70, Data_out =  31788
Time =            410500000, Counter = 82, amp = 124, Data_out =  32907
Time =            411500000, Counter = 287, amp = 149, Data_out =  34154
Time =            412500000, Counter = 492, amp = 100, Data_out =  33799
Time =            413500000, Counter = 697, amp = 52, Data_out =  32324
Time =            414500000, Counter = 902, amp = 70, Data_out =  31764
Time =            415500000, Counter = 83, amp = 127, Data_out =  32818
Time =            416500000, Counter = 288, amp = 148, Data_out =  33989
Time =            417500000, Counter = 493, amp = 100, Data_out =  33618
Time =            418500000, Counter = 698, amp = 52, Data_out =  32172
Time =            419500000, Counter = 903, amp = 70, Data_out =  31680
Time =            420500000, Counter = 84, amp = 127, Data_out =  32818
Time =            421500000, Counter = 289, amp = 148, Data_out =  34050
Time =            422500000, Counter = 494, amp = 100, Data_out =  33671
Time =            423500000, Counter = 699, amp = 52, Data_out =  32185
Time =            424500000, Counter = 904, amp = 70, Data_out =  31680
Time =            425500000, Counter = 85, amp = 127, Data_out =  32818
Time =            426500000, Counter = 290, amp = 148, Data_out =  34041
Time =            427500000, Counter = 495, amp = 100, Data_out =  33674
Time =            428500000, Counter = 700, amp = 52, Data_out =  32252
Time =            429500000, Counter = 905, amp = 70, Data_out =  31806
Time =            430500000, Counter = 86, amp = 127, Data_out =  32964
Time =            431500000, Counter = 291, amp = 148, Data_out =  34169
Time =            432500000, Counter = 496, amp = 100, Data_out =  33761
Time =            433500000, Counter = 701, amp = 52, Data_out =  32283
Time =            434500000, Counter = 906, amp = 70, Data_out =  31799
Time =            435500000, Counter = 87, amp = 127, Data_out =  32960
Time =            436500000, Counter = 292, amp = 148, Data_out =  34169
Time =            437500000, Counter = 497, amp = 100, Data_out =  33761
Time =            438500000, Counter = 702, amp = 52, Data_out =  32283
Time =            439500000, Counter = 907, amp = 70, Data_out =  31808
Time =            440500000, Counter = 88, amp = 127, Data_out =  32975
Time =            441500000, Counter = 293, amp = 148, Data_out =  34175
Time =            442500000, Counter = 498, amp = 100, Data_out =  33760
Time =            443500000, Counter = 703, amp = 52, Data_out =  32282
Time =            444500000, Counter = 908, amp = 70, Data_out =  31808
Time =            445500000, Counter = 89, amp = 127, Data_out =  32975
Time =            446500000, Counter = 294, amp = 148, Data_out =  34181
Time =            447500000, Counter = 499, amp = 100, Data_out =  33758
Time =            448500000, Counter = 704, amp = 52, Data_out =  32282
Time =            449500000, Counter = 909, amp = 70, Data_out =  31808
Time =            450500000, Counter = 90, amp = 127, Data_out =  32975
Time =            451500000, Counter = 295, amp = 148, Data_out =  34181
Time =            452500000, Counter = 500, amp = 97, Data_out =  33752
Time =            453500000, Counter = 705, amp = 51, Data_out =  32280
Time =            454500000, Counter = 910, amp = 73, Data_out =  31814
Time =            455500000, Counter = 91, amp = 127, Data_out =  32975
Time =            456500000, Counter = 296, amp = 148, Data_out =  34178
Time =            457500000, Counter = 501, amp = 97, Data_out =  33739
Time =            458500000, Counter = 706, amp = 51, Data_out =  32261
Time =            459500000, Counter = 911, amp = 73, Data_out =  31811
Time =            460500000, Counter = 92, amp = 127, Data_out =  32990
Time =            461500000, Counter = 297, amp = 148, Data_out =  34187
Time =            462500000, Counter = 502, amp = 97, Data_out =  33739
Time =            463500000, Counter = 707, amp = 51, Data_out =  32261
Time =            464500000, Counter = 912, amp = 73, Data_out =  31787
Time =            465500000, Counter = 93, amp = 129, Data_out =  32899
Time =            466500000, Counter = 298, amp = 147, Data_out =  34030
Time =            467500000, Counter = 503, amp = 97, Data_out =  33587
Time =            468500000, Counter = 708, amp = 51, Data_out =  32159
Time =            469500000, Counter = 913, amp = 73, Data_out =  31765
Time =            470500000, Counter = 94, amp = 129, Data_out =  32958
Time =            471500000, Counter = 299, amp = 147, Data_out =  34135
Time =            472500000, Counter = 504, amp = 97, Data_out =  33666
Time =            473500000, Counter = 709, amp = 51, Data_out =  32180
Time =            474500000, Counter = 914, amp = 73, Data_out =  31765
Time =            475500000, Counter = 95, amp = 129, Data_out =  32958
Time =            476500000, Counter = 300, amp = 147, Data_out =  34126
Time =            477500000, Counter = 505, amp = 97, Data_out =  33661
Time =            478500000, Counter = 710, amp = 51, Data_out =  32221
Time =            479500000, Counter = 915, amp = 73, Data_out =  31847
Time =            480500000, Counter = 96, amp = 129, Data_out =  33045
Time =            481500000, Counter = 301, amp = 147, Data_out =  34192
Time =            482500000, Counter = 506, amp = 97, Data_out =  33698
Time =            483500000, Counter = 711, amp = 51, Data_out =  32223
Time =            484500000, Counter = 916, amp = 73, Data_out =  31832
Time =            485500000, Counter = 97, amp = 129, Data_out =  33043
Time =            486500000, Counter = 302, amp = 147, Data_out =  34192
Time =            487500000, Counter = 507, amp = 97, Data_out =  33698
Time =            488500000, Counter = 712, amp = 51, Data_out =  32223
Time =            489500000, Counter = 917, amp = 73, Data_out =  31838
Time =            490500000, Counter = 98, amp = 129, Data_out =  33052
Time =            491500000, Counter = 303, amp = 147, Data_out =  34194
Time =            492500000, Counter = 508, amp = 97, Data_out =  33696
Time =            493500000, Counter = 713, amp = 51, Data_out =  32222
Time =            494500000, Counter = 918, amp = 73, Data_out =  31838
Time =            495500000, Counter = 99, amp = 129, Data_out =  33052
Time =            496500000, Counter = 304, amp = 147, Data_out =  34198
Time =            497500000, Counter = 509, amp = 97, Data_out =  33694
